<?xml version="1.0" standalone="no"?>
<!DOCTYPE svg PUBLIC "-//W3C//DTD SVG 1.1//EN" "http://www.w3.org/Graphics/SVG/1.1/DTD/svg11.dtd" >
<svg xmlns="http://www.w3.org/2000/svg">
<metadata>Generated by IcoMoon</metadata>
<defs>
<font id="icons" horiz-adv-x="1024">
<font-face units-per-em="1024" ascent="960" descent="-64" />
<missing-glyph horiz-adv-x="1024" />
<glyph unicode="&#x20;" horiz-adv-x="512" d="" />
<glyph unicode="&#xe900;" glyph-name="facebook" horiz-adv-x="491" d="M327.475 648.241v81.045c0 38.144 25.408 47.659 42.923 47.659h112.789v170.048h-154.091c-170.048 0-209.792-127.125-209.792-208.171v-90.581h-98.453v-198.635h100.032v-497.323h198.677v497.323h147.755l6.336 77.888 11.115 120.747h-157.291z" />
<glyph unicode="&#xe901;" glyph-name="linkedin" d="M1005.878 411.802c-15.334 125.875-74.368 205.952-244.096 205.952-102.963 0-169.702-38.144-198.323-89.626h-1.894v89.626h-186.854v-669.312h194.432v331.802c0 87.706 17.229 171.597 125.85 171.597 104.934 0 114.458-99.149 114.458-177.331v-326.067h200.218v368.051c0 34.33 0 66.739-3.789 95.309v0zM4.815 440.397v-491.955h234.496v669.312h-234.496v-177.357zM122.959 953.344c-64.819 0-118.144-53.402-118.144-118.221 0-64.845 53.325-116.301 118.144-116.301 64.87 0 116.352 51.456 116.352 116.301 0 64.819-51.482 118.221-116.352 118.221v0z" />
<glyph unicode="&#xe902;" glyph-name="twitter" horiz-adv-x="1252" d="M1098.214 791.279c52.964 31.772 93.212 80.526 112.299 139.833-50.859-29.668-103.822-50.887-163.129-61.468-46.649 48.754-112.299 80.526-186.453 80.526-141.966 0-256.398-114.432-256.398-252.103 0-21.191 2.133-40.249 6.4-57.23-211.883 10.581-400.469 110.165-525.454 262.741-23.296-38.144-36.039-80.526-36.039-127.118 0-86.898 46.649-163.129 114.432-209.778-42.382 2.105-82.631 12.743-116.537 31.801 0-36.011 6.372-65.65 16.981-95.346 31.772-78.393 101.66-137.728 188.558-154.681-21.191-6.343-44.516-8.448-67.812-8.448-14.848 0-31.772 2.105-48.725 4.238 33.877-99.612 127.118-173.767 239.417-175.872-86.898-65.65-197.035-105.899-317.781-105.899-19.086 0-40.277 0-59.335 2.105 112.27-72.050 245.732-112.299 391.908-112.299 398.336 0 644.096 277.532 709.803 563.57 10.581 50.83 16.924 101.689 16.924 152.519v31.801c48.754 35.982 93.241 80.498 127.147 131.356-46.649-21.22-95.374-33.906-146.204-40.249z" />
<glyph unicode="&#xea92;" glyph-name="instagram" d="M512 867.8c136.8 0 153-0.6 206.8-3 50-2.2 77-10.6 95-17.6 23.8-9.2 41-20.4 58.8-38.2 18-18 29-35 38.4-58.8 7-18 15.4-45.2 17.6-95 2.4-54 3-70.2 3-206.8s-0.6-153-3-206.8c-2.2-50-10.6-77-17.6-95-9.2-23.8-20.4-41-38.2-58.8-18-18-35-29-58.8-38.4-18-7-45.2-15.4-95-17.6-54-2.4-70.2-3-206.8-3s-153 0.6-206.8 3c-50 2.2-77 10.6-95 17.6-23.8 9.2-41 20.4-58.8 38.2-18 18-29 35-38.4 58.8-7 18-15.4 45.2-17.6 95-2.4 54-3 70.2-3 206.8s0.6 153 3 206.8c2.2 50 10.6 77 17.6 95 9.2 23.8 20.4 41 38.2 58.8 18 18 35 29 58.8 38.4 18 7 45.2 15.4 95 17.6 53.8 2.4 70 3 206.8 3zM512 960c-139 0-156.4-0.6-211-3-54.4-2.4-91.8-11.2-124.2-23.8-33.8-13.2-62.4-30.6-90.8-59.2-28.6-28.4-46-57-59.2-90.6-12.6-32.6-21.4-69.8-23.8-124.2-2.4-54.8-3-72.2-3-211.2s0.6-156.4 3-211c2.4-54.4 11.2-91.8 23.8-124.2 13.2-33.8 30.6-62.4 59.2-90.8 28.4-28.4 57-46 90.6-59 32.6-12.6 69.8-21.4 124.2-23.8 54.6-2.4 72-3 211-3s156.4 0.6 211 3c54.4 2.4 91.8 11.2 124.2 23.8 33.6 13 62.2 30.6 90.6 59s46 57 59 90.6c12.6 32.6 21.4 69.8 23.8 124.2 2.4 54.6 3 72 3 211s-0.6 156.4-3 211c-2.4 54.4-11.2 91.8-23.8 124.2-12.6 34-30 62.6-58.6 91-28.4 28.4-57 46-90.6 59-32.6 12.6-69.8 21.4-124.2 23.8-54.8 2.6-72.2 3.2-211.2 3.2v0zM512 711c-145.2 0-263-117.8-263-263s117.8-263 263-263 263 117.8 263 263c0 145.2-117.8 263-263 263zM512 277.4c-94.2 0-170.6 76.4-170.6 170.6s76.4 170.6 170.6 170.6c94.2 0 170.6-76.4 170.6-170.6s-76.4-170.6-170.6-170.6zM846.8 721.4c0-33.91-27.49-61.4-61.4-61.4s-61.4 27.49-61.4 61.4c0 33.91 27.49 61.4 61.4 61.4s61.4-27.49 61.4-61.4z" />
</font></defs></svg>